{
    "rbm_data_relation": {
        "column": {
            "entity_id": true,
            "name": true,
            "private_data": true,
            "public_page": true,
            "customer_group": true,
            "storeviews": true,
            "from": true,
            "to": true,
            "is_active": true
        },
        "constraint": {
            "PRIMARY": true
        }
    }
}